…
```r 
bal_hist <- historical_download(id = "ESIBA",
                                dates = c("2019-01-01","2021-05-30"),
                                months = c(1:3),# solamente de enero hasta marzo 
                                save_excel = F) # recomendable T
                                
bal_hist

# A tibble: 6,134 x 14
#    name   id    time         lon   lat   alt Temp.max Temp.min Hum.max Hum.min Pres.max Pres.min
#    <chr>  <chr> <date>     <dbl> <dbl> <dbl>    <dbl>    <dbl>   <dbl>   <dbl>    <dbl>    <dbl>
#  1 Cala ~ ESIB~ 2019-01-01  1.28  39.0    12     17.7      5.7      94      64     1030     1028
#  2 Eivis~ ESIB~ 2019-01-01  1.32  38.9    27     17        8.3      92      61     1030     1028
#  3 Cala ~ ESIB~ 2019-01-01  3.89  40.0    65     15.5     10.9      94      76     1031     1028
#  4 Campa~ ESIB~ 2019-01-01  2.97  39.8   129     22.2     10.1      86      29     1031     1028
#  5 Ciuta~ ESIB~ 2019-01-01  3.83  40.0    16     15.6      9        91      73     1030     1027
#  6 Eivis~ ESIB~ 2019-01-01  1.41  38.9    27     17        8.3      92      61     1030     1028
#  7 Estel~ ESIB~ 2019-01-01  2.48  39.6   145     16.1      8.1      86      53     1032     1029
#  8 Inca ~ ESIB~ 2019-01-01  2.9   39.7   124     18.4      7.3      88      38     1030     1027
#  9 Inca ~ ESIB~ 2019-01-01  2.9   39.7   120     15.7      4.7      52      37     1027     1026
# 10 Llore~ ESIB~ 2019-01-01  2.97  39.6   166     18.7      6.1      83      40     1031     1027
# ... with 6,124 more rows, and 2 more variables: Vient.max <dbl>, Precip.diaria <dbl>        
```
…
